…
It's definitely faster, but it seems we have some errors. Let's inspect them. 


{% highlight r %}
problems(multiple_choice_responses)
{% endhighlight %}



{% highlight text %}
## # A tibble: 31 x 5
##      row col                  expected          actual file               
##    <int> <chr>                <chr>             <chr>  <chr>              
##  1  1344 LearningCategoryOnl… no trailing char… .5     'multipleChoiceRes…
##  2  2509 TimeModelBuilding    no trailing char… .5     'multipleChoiceRes…
##  3  2509 TimeVisualizing      no trailing char… .5     'multipleChoiceRes…
##  4  3236 LearningCategorySel… no trailing char… .5     'multipleChoiceRes…
##  5  3236 LearningCategoryOnl… no trailing char… .5     'multipleChoiceRes…
##  6  3579 TimeVisualizing      no trailing char… .5     'multipleChoiceRes…
##  7  3579 TimeFindingInsights  no trailing char… .5     'multipleChoiceRes…
##  8  4019 LearningCategorySel… no trailing char… .5     'multipleChoiceRes…
##  9  4019 LearningCategoryWork no trailing char… .5     'multipleChoiceRes…
## 10  4164 TimeProduction       no trailing char… .5     'multipleChoiceRes…
## # ... with 21 more rows
…
This data would be more helpful if it was tidy and had two columns, `question` and `num_distinct_answers`. We can use `tidyr::gather` to change our data from "wide" to "long" format and then `arrange` it so we can see the columns with the most distinct answers first. If you've used (or are still using!) reshape2, check out tidyr; reshape2 is retired and is only updated with changes necessary for it to remain on CRAN. While not exactly equivalent, `tidyr::spread` replaces `reshape2::dcast`, `tidyr::separate` `reshape2::colsplit`, and `tidyr::gather` `reshape2::melt`. 


{% highlight r %}
multiple_choice_responses %>%
  summarise_all(n_distinct) %>%
  tidyr::gather(question, num_distinct_answers) %>%
  arrange(desc(num_distinct_answers))
{% endhighlight %}



{% highlight text %}
## # A tibble: 228 x 2
##    question               num_distinct_answers
##    <chr>                                 <int>
##  1 WorkMethodsSelect                      6191
##  2 LearningPlatformSelect                 5363
##  3 WorkToolsSelect                        5249
##  4 WorkChallengesSelect                   4288
##  5 WorkDatasetsChallenge                  2221
##  6 PastJobTitlesSelect                    1856
##  7 MLTechniquesSelect                     1802
##  8 WorkDatasets                           1724
##  9 WorkAlgorithmsSelect                   1421
## 10 MLSkillsSelect                         1038
## # ... with 218 more rows
{% endhighlight %}

Let's take a look at the question with the most distinct answers, WorkMethodsSelect. 


{% highlight r %}
multiple_choice_responses %>%
  count(WorkMethodsSelect, sort = TRUE)
{% endhighlight %}



{% highlight text %}
## # A tibble: 6,191 x 2
##    WorkMethodsSelect                           n
##    <chr>                                   <int>
##  1 <NA>                                     8943
##  2 Data Visualization                        144
##  3 Other                                     144
##  4 Logistic Regression                        66
##  5 Time Series Analysis                       49
##  6 Neural Networks                            45
##  7 A/B Testing                                42
##  8 Data Visualization,Time Series Analysis    37
##  9 Text Analytics                             36
## 10 Decision Trees                             29
## # ... with 6,181 more rows
…
{% highlight r %}
nested_workmethods <- multiple_choice_responses %>%
  select(WorkMethodsSelect) %>%
  filter(!is.na(WorkMethodsSelect)) %>%
  mutate(work_method = str_split(WorkMethodsSelect, ",")) 

nested_workmethods %>%
  select(work_method)
{% endhighlight %}



{% highlight text %}
## # A tibble: 7,773 x 1
##    work_method
##    <list>     
##  1 <chr [5]>  
##  2 <chr [12]> 
##  3 <chr [17]> 
##  4 <chr [14]> 
##  5 <chr [12]> 
##  6 <chr [1]>  
##  7 <chr [14]> 
##  8 <chr [12]> 
##  9 <chr [7]>  
## 10 <chr [5]>  
## # ... with 7,763 more rows
…
Now we have a list column, with each entry in the list being one work method. We can `unnest` this so we can get back a tidy dataframe. 


{% highlight r %}
unnested_workmethods <- nested_workmethods %>%
  tidyr::unnest(work_method) %>%
  select(work_method)

unnested_workmethods
{% endhighlight %}



{% highlight text %}
## # A tibble: 59,497 x 1
##    work_method                     
##    <chr>                           
##  1 Association Rules               
##  2 Collaborative Filtering         
##  3 Neural Networks                 
##  4 PCA and Dimensionality Reduction
##  5 Random Forests                  
##  6 A/B Testing                     
##  7 Bayesian Techniques             
##  8 Data Visualization              
##  9 Decision Trees                  
## 10 Ensemble Methods                
## # ... with 59,487 more rows
{% endhighlight %}

Great! As a last step, let's `count` this data so we can find which are the most common work methods people use. 


{% highlight r %}
unnested_workmethods %>%
  count(work_method, sort = TRUE)
{% endhighlight %}



{% highlight text %}
## # A tibble: 31 x 2
##    work_method                          n
##    <chr>                            <int>
##  1 Data Visualization                5022
##  2 Logistic Regression               4291
##  3 Cross-Validation                  3868
##  4 Decision Trees                    3695
##  5 Random Forests                    3454
##  6 Time Series Analysis              3153
##  7 Neural Networks                   2811
##  8 PCA and Dimensionality Reduction  2789
##  9 kNN and Other Clustering          2624
## 10 Text Analytics                    2405
## # ... with 21 more rows
…
{% highlight r %}
WorkChallenges <- multiple_choice_responses %>%
  select(contains("WorkChallengeFrequency")) %>%
  gather(question, response) %>%
  filter(!is.na(response)) %>%
  mutate(question = stringr::str_remove(question, "WorkChallengeFrequency")) 

WorkChallenges
{% endhighlight %}



{% highlight text %}
## # A tibble: 31,486 x 2
##    question response        
##    <chr>    <chr>           
##  1 Politics Rarely          
##  2 Politics Often           
##  3 Politics Often           
##  4 Politics Often           
##  5 Politics Rarely          
##  6 Politics Most of the time
##  7 Politics Often           
##  8 Politics Often           
##  9 Politics Rarely          
## 10 Politics Most of the time
## # ... with 31,476 more rows
…
